{
  "ionic-plugin-keyboard": {
    "source": {
      "type": "registry",
      "id": "ionic-plugin-keyboard@~2.2.1"
    },
    "is_top_level": true,
    "variables": {}
  },
  "cordova-plugin-whitelist": {
    "source": {
      "type": "registry",
      "id": "cordova-plugin-whitelist@1.3.1"
    },
    "is_top_level": true,
    "variables": {}
  },
  "cordova-plugin-device": {
    "source": {
      "type": "registry",
      "id": "cordova-plugin-device@1.1.4"
    },
    "is_top_level": true,
    "variables": {}
  },
  "cordova-plugin-splashscreen": {
    "source": {
      "type": "registry",
      "id": "cordova-plugin-splashscreen@~4.0.1"
    },
    "is_top_level": true,
    "variables": {}
  },
  "cordova-plugin-ionic-webview": {
    "source": {
      "type": "registry",
      "id": "cordova-plugin-ionic-webview@^1.1.11"
    },
    "is_top_level": true,
    "variables": {}
  },
  "cordova-plugin-geolocation": {
    "source": {
      "type": "registry",
      "id": "cordova-plugin-geolocation@4.0.1"
    },
    "is_top_level": true,
    "variables": {}
  },
  "uk.co.workingedge.phonegap.plugin.launchnavigator": {
    "source": {
      "type": "registry",
      "id": "uk.co.workingedge.phonegap.plugin.launchnavigator@4.2.2"
    },
    "is_top_level": true,
    "variables": {
      "LOCATION_USAGE_DESCRIPTION": "This app requires access to your location for navigation purposes"
    }
  },
  "cordova-plugin-actionsheet": {
    "source": {
      "type": "registry",
      "id": "cordova-plugin-actionsheet@2"
    },
    "is_top_level": false,
    "variables": {}
  },
  "cordova-plugin-dialogs": {
    "source": {
      "type": "registry",
      "id": "cordova-plugin-dialogs@*"
    },
    "is_top_level": false,
    "variables": {}
  }
}